{
    "name": "yhosts",
    "description": "Chinese2",
    "homeurl": "https://raw.githubusercontent.com/vokins/yhosts/master/hosts",
    "frequency": "frequently",
    "issues": "https://raw.githubusercontent.com/vokins/yhosts/master/hosts",
    "url": "https://raw.githubusercontent.com/vokins/yhosts/master/hosts",
    "license": "MIT"
}